{
  "project_info": {
    "project_number": "805745910938",
    "firebase_url": "https://gallery-app-1.firebaseio.com",
    "project_id": "gallery-app-1",
    "storage_bucket": "gallery-app-1.appspot.com"
  },
  "client": [
    {
      "client_info": {
        "mobilesdk_app_id": "1:805745910938:android:57cc46ea7dd1fe94",
        "android_client_info": {
          "package_name": "com.myapp.rodrigo.gallery"
        }
      },
      "oauth_client": [
        {
          "client_id": "805745910938-c2f5qo0d79eqsrpf4ur1fu0qn9p7p0ag.apps.googleusercontent.com",
          "client_type": 3
        }
      ],
      "api_key": [
        {
          "current_key": "AIzaSyBA9HTUlulCUpPFQYZcWpahkt7Hu68_UoE"
        }
      ],
      "services": {
        "analytics_service": {
          "status": 1
        },
        "appinvite_service": {
          "status": 1,
          "other_platform_oauth_client": []
        },
        "ads_service": {
          "status": 2
        }
      }
    }
  ],
  "configuration_version": "1"
}